<svg xmlns="http://www.w3.org/2000/svg" width="18.728" height="18.728" viewBox="0 0 18.728 18.728">
  <g id="Group_9" data-name="Group 9" transform="translate(9.364 15.728) rotate(-135)">
    <path id="Path_81" data-name="Path 81" d="M0,0,9,9" transform="translate(0 0)" fill="none" stroke="#e4e1eb" stroke-linecap="round" stroke-width="3"/>
    <path id="Path_82" data-name="Path 82" d="M0,0,4.5,4.5,9,9" transform="translate(0 9) rotate(-90)" fill="none" stroke="#e4e1eb" stroke-linecap="round" stroke-width="3"/>
  </g>
</svg>
